[
  {
    "id": 9997,
    "army": "Non-Asligned Armies",
    "army_id": 9999,
    "name": "Japanese Secessionist Army",
    "units": [
      {
        "comment": "Keisotsu",
        "id": 9042,
        "linkable": true,
        "note": "Special Fireteam: Core 1 or 2 Kempeitai + Keisotsu<br>Special Fireteam: Core 1 Kempeitai + 1 Domaru + Keisotsu"
      },
      {
        "comment": "Kempeitai",
        "id": 9044,
        "note": "Special Fireteam: Core 1 or 2 Kempeitai + Keisotsu<br>Special Fireteam: Core 1 Kempeitai + 1 Domaru + Keisotsu"
      },
      {
        "comment": "Aragoto Senkenbutai",
        "id": 9041
      },
      {
        "comment": "Ryūken Unit-9",
        "id": 9046
      },
      {
        "comment": "Karakuri Special Project",
        "id": 9049,
        "note": "Special Fireteam: Haris 1 Domaru Haris + 2 Karakuri"
      },
      {
        "comment": "Domaru Butai",
        "id": 9050,
        "linkable": true,
        "note": "Special Fireteam: Haris 2 Domaru + 1 Daiyōkai<br>Special Fireteam: Haris 1 Domaru Haris + 2 Karakuri<br>Special Fireteam: Core 2+ Domaru and 0-3 Tanko"
      },
      {
        "comment": "Tankō Zensenbutai",
        "id": 9053,
        "childs": [
          {
            "comment": "Duo is not available in JSA",
            "id": 5,
            "hide": true
          },
          {
            "comment": "Haris is not available in JSA",
            "id": 6,
            "hide": true
          }
        ],
        "note": "Special Fireteam: Haris Miyamoto Mushashi + 2 Tankō<br>Special Fireteam: Core 2+ Domaru and 0-3 Tankō"
      },
      {
        "comment": "O-Yoroi Kidobutai",
        "id": 9054
      },
      {
        "comment": "Shikami",
        "id": 9052
      },
      {
        "comment": "Ninjas",
        "id": 9055
      },
      {
        "comment": "Oniwaban",
        "id": 9056
      },
      {
        "comment": "Tokusetsu Butai",
        "id": 9047
      },
      {
        "comment": "Oniwaban Shinobu Kitsune",
        "id": 9057
      },
      {
        "comment": "Domaru Takeshi 'Neko' Oyama",
        "id": 9051,
        "linkable": true,
        "note": "Counts as Domaru for Fireteam composition"
      },
      {
        "comment": "Kuroshi Rider",
        "id": 9045
      },
      {
        "comment": "Yáoxiè Rui Shi",
        "id": 2038,
        "ava": "1",
        "childs": [
          {
            "comment": "SWC increased to 1.5 in JSA",
            "id": 1,
            "swc": "1.5"
          }
        ]
      },
      {
        "comment": "Yáoxiè Lù Duān",
        "id": 2039,
        "ava": "1"
      },
      {
        "comment": "Yáokòng Wèibīng",
        "id": 2017,
        "ava": "1"
      },
      {
        "comment": "Yáokòng Hùsòng",
        "id": 2018,
        "ava": "1",
        "childs": [
          {
            "comment": "SWC increased to 1.5 in JSA",
            "id": 1,
            "swc": "1.5"
          }
        ]
      },
      {
        "comment": "Yáokòng Son-bae",
        "id": 2019,
        "ava": "1"
      },
      {
        "comment": "Yáokòng Chaīyì",
        "id": 2020,
        "ava": "1"
      },
      {
        "comment": "Yáozăo",
        "id": 2025,
        "ava": "2"
      },
      {
        "comment": "Yáopú Pangguling",
        "id": 2026,
        "ava": "2"
      },
      {
        "comment": "Kaizoku Spec-Ops",
        "id": 9059,
        "ava": "1"
      },
      {
        "comment": "Kaizoku Yuriko Oda",
        "id": 9043,
        "linkable": true,
        "note": "Counts as Keisotsu for Fireteam composition"
      },
      {
        "comment": "Daiyōkai Dengekitai",
        "id": 9048,
        "note": "Special Fireteam: Duo 1 Domaru + 1 Daiyōkai<br>Special Fireteam: Haris 2 Domaru + 1 Daiyōkai"
      },
      {
        "comment": "Warcor",
        "id": 9017,
        "ava": "1"
      },
      {
        "comment": "Yojimbo",
        "id": 9014
      },
      {
        "comment": "Saito Tōgan",
        "id": 9037
      },
      {
        "comment": "Miyamoto Mushashi",
        "id": 9008
      },
      {
        "comment": "Miyamoto Mushashi (Haris)",
        "id": 9058
      }
    ]
  }
]
