{
  "armies": [
    {
      "army": "Aleph",
      "id": 7999,
      "mercs": true
    },
    {
      "army": "Ariadna",
      "id": 3999,
      "mercs": true
    },
    {
      "army": "Combined Army",
      "id": 6999,
      "mercs": false
    },
    {
      "army": "Haqqislam",
      "id": 4999,
      "mercs": true
    },
    {
      "army": "Nomads",
      "id": 5999,
      "mercs": true
    },
    {
      "army": "Mercenary",
      "id": 9999,
      "mercs": false
    },
    {
      "army": "PanOceania",
      "id": 1999,
      "mercs": true
    },
    {
      "army": "Tohaa",
      "id": 8999,
      "mercs": false
    },
    {
      "army": "Yu Jing",
      "id": 2999,
      "mercs": true
    }
  ],
  "sectorials": [
    {
      "army": "Haqqislam",
      "name": "Qapu Khalqi",
      "id": 4998,
      "mercs": true
    },
    {
      "army": "Haqqislam",
      "name": "Hassassin Bahram",
      "id": 4997,
      "mercs": true
    },
    {
      "army": "Combined Army",
      "name": "Morat Aggression Force",
      "id": 6997,
      "mercs": false
    },
    {
      "army": "Combined Army",
      "name": "Shasvastii Expeditionary Force",
      "id": 6998,
      "mercs": false
    },
    {
      "army": "Ariadna",
      "name": "Caledonian Highlander Army",
      "id": 3998,
      "mercs": true
    },
    {
      "army": "Yu Jing",
      "name": "Imperial Service",
      "id": 2997,
      "mercs": true
    },
    {
      "army": "Yu Jing",
      "name": "Japanese Sectorial Army",
      "id": 2998,
      "mercs": true
    },
    {
      "army": "Nomads",
      "name": "Bakunin Jurisdictional Command",
      "id": 5997,
      "mercs": true
    },
    {
      "army": "Nomads",
      "name": "Corregidor Jurisdictional Command",
      "id": 5998,
      "mercs": true
    },
    {
      "army": "PanOceania",
      "name": "Shock Army of Acontecimento",
      "id": 1998,
      "mercs": true
    },
    {
      "army": "PanOceania",
      "name": "Neoterran Capitaline Army",
      "id": 1997,
      "mercs": true
    },
    {
      "army": "PanOceania",
      "name": "Military Orders",
      "id": 1996,
      "mercs": true
    },
    {
      "army": "Ariadna",
      "name": "Merovingian Rapid Response Force",
      "id": 3997,
      "mercs": true
    },
    {
      "army": "Aleph",
      "name": "Steel Phalanx",
      "id": 7998,
      "mercs": true
    }
  ]
}
